{
    "window.zoomLevel": 2,
    "[javascript]": {
        "editor.defaultFormatter": "esbenp.prettier-vscode"
    },
    "workbench.colorTheme": "Default Light+",
    "javascript.updateImportsOnFileMove.enabled": "always",
    "[json]": {
        "editor.defaultFormatter": "esbenp.prettier-vscode"
    },
    "editor.suggestSelection": "first",
    "vsintellicode.modify.editor.suggestSelection": "automaticallyOverrodeDefaultValue",
    "[typescript]": {
        "editor.defaultFormatter": "esbenp.prettier-vscode"
    },
    "[typescriptreact]": {
        "editor.defaultFormatter": "esbenp.prettier-vscode"
    },
    "editor.tabSize": 2,
    "typescript.updateImportsOnFileMove.enabled": "always",
    "[javascriptreact]": {
        "editor.defaultFormatter": "esbenp.prettier-vscode"
    },
    "[markdown]": {
        "editor.defaultFormatter": "esbenp.prettier-vscode"
    },
    "cSpell.userWords": [
        "craco",
        "fastify",
        "Hoverable",
        "Postgrator",
        "rerender",
        "seedrandom",
        "Spork",
        "tailwindcss",
        "timestampz",
        "uuidv"
    ],
    "typescript.tsdk": "node_modules/typescript/lib",
    "[svelte]": {
        "editor.defaultFormatter": "esbenp.prettier-vscode"
    },
    "gitlens.blame.ignoreWhitespace": true,
    "gitlens.changes.locations": [
        "gutter"
    ],
    "gitlens.codeLens.recentChange.enabled": false,
    "gitlens.codeLens.scopes": [
        "document"
    ],
    "[jsonc]": {
        "editor.defaultFormatter": "esbenp.prettier-vscode"
    },
    "git.allowNoVerifyCommit": true,
    "eslint.alwaysShowStatus": true,
    "[html]": {
        "editor.defaultFormatter": "esbenp.prettier-vscode"
    },
    "security.workspace.trust.enabled": false,
    "prettier.requireConfig": true,
    "eslint.validate": [
        "javascript",
        "javascriptreact",
        "typescript",
        "vue",
        "svelte"
    ],
    "typescript.surveys.enabled": false,
    "svelte.enable-ts-plugin": true,
    "diffEditor.ignoreTrimWhitespace": false,
    "[sql]": {},
    "tailwindCSS.includeLanguages": {
        "ejs": "html"
    },
    "editor.hover.delay": 1000,
    "diffEditor.renderSideBySide": true
}